{
	"process_id" : 15292,
	"version" : "2018.3.3f1",
	"app_path" : "C:/Program Files/Unity/Hub/Editor/2018.3.3f1/Editor/Unity.exe",
	"app_contents_path" : "C:/Program Files/Unity/Hub/Editor/2018.3.3f1/Editor/Data"
}